   1               		.file	"main.c"
   2               	__SREG__ = 0x3f
   3               	__SP_H__ = 0x3e
   4               	__SP_L__ = 0x3d
   5               	__CCP__  = 0x34
   6               	__tmp_reg__ = 0
   7               	__zero_reg__ = 1
  15               	.Ltext0:
  16               	.global	init_7_seg
  18               	init_7_seg:
  19               	.LFB6:
  20               	.LM1:
  21               	/* prologue: function */
  22               	/* frame size = 0 */
  23               	.LM2:
  24 0000 8FE7      		ldi r24,lo8(127)
  25 0002 81BB      		out 49-32,r24
  26               	.LM3:
  27 0004 12BA      		out 50-32,__zero_reg__
  28               	/* epilogue start */
  29               	.LM4:
  30 0006 0895      		ret
  31               	.LFE6:
  33               	.global	clear_display
  35               	clear_display:
  36               	.LFB7:
  37               	.LM5:
  38               	/* prologue: function */
  39               	/* frame size = 0 */
  40               	.LM6:
  41 0008 12BA      		out 50-32,__zero_reg__
  42               	/* epilogue start */
  43               	.LM7:
  44 000a 0895      		ret
  45               	.LFE7:
  47               	.global	display_number
  49               	display_number:
  50               	.LFB8:
  51               	.LM8:
  52               	.LVL0:
  53               	/* prologue: function */
  54               	/* frame size = 0 */
  55               	.LM9:
  56 000c 8430      		cpi r24,4
  57 000e 9105      		cpc r25,__zero_reg__
  58 0010 01F0      		breq .L11
  59 0012 8530      		cpi r24,5
  60 0014 9105      		cpc r25,__zero_reg__
  61 0016 04F4      		brge .L17
  62 0018 8130      		cpi r24,1
  63 001a 9105      		cpc r25,__zero_reg__
  64 001c 01F0      		breq .L8
  65 001e 8230      		cpi r24,2
  66 0020 9105      		cpc r25,__zero_reg__
  67 0022 04F4      		brge .L18
  68 0024 892B      		or r24,r25
  69 0026 01F0      		breq .L7
  70 0028 0895      		ret
  71               	.L18:
  72 002a 8230      		cpi r24,2
  73 002c 9105      		cpc r25,__zero_reg__
  74 002e 01F0      		breq .L9
  75 0030 0397      		sbiw r24,3
  76 0032 01F4      		brne .L20
  77 0034 00C0      		rjmp .L22
  78               	.L17:
  79 0036 8730      		cpi r24,7
  80 0038 9105      		cpc r25,__zero_reg__
  81 003a 01F0      		breq .L14
  82 003c 8830      		cpi r24,8
  83 003e 9105      		cpc r25,__zero_reg__
  84 0040 04F4      		brge .L19
  85 0042 8530      		cpi r24,5
  86 0044 9105      		cpc r25,__zero_reg__
  87 0046 01F0      		breq .L12
  88 0048 0697      		sbiw r24,6
  89 004a 01F4      		brne .L20
  90 004c 00C0      		rjmp .L23
  91               	.L19:
  92 004e 8830      		cpi r24,8
  93 0050 9105      		cpc r25,__zero_reg__
  94 0052 01F0      		breq .L15
  95 0054 0997      		sbiw r24,9
  96 0056 01F4      		brne .L20
  97 0058 00C0      		rjmp .L24
  98               	.L7:
  99               	.LM10:
 100 005a 8FE3      		ldi r24,lo8(63)
 101               	.LVL1:
 102 005c 00C0      		rjmp .L21
 103               	.LVL2:
 104               	.L8:
 105               	.LM11:
 106 005e 86E0      		ldi r24,lo8(6)
 107               	.LVL3:
 108 0060 00C0      		rjmp .L21
 109               	.LVL4:
 110               	.L9:
 111               	.LM12:
 112 0062 8BE5      		ldi r24,lo8(91)
 113               	.LVL5:
 114 0064 00C0      		rjmp .L21
 115               	.LVL6:
 116               	.L22:
 117               	.LM13:
 118 0066 8FE4      		ldi r24,lo8(79)
 119               	.LVL7:
 120 0068 00C0      		rjmp .L21
 121               	.LVL8:
 122               	.L11:
 123               	.LM14:
 124 006a 86E6      		ldi r24,lo8(102)
 125               	.LVL9:
 126 006c 00C0      		rjmp .L21
 127               	.LVL10:
 128               	.L12:
 129               	.LM15:
 130 006e 8DE6      		ldi r24,lo8(109)
 131               	.LVL11:
 132 0070 00C0      		rjmp .L21
 133               	.LVL12:
 134               	.L23:
 135               	.LM16:
 136 0072 8DE7      		ldi r24,lo8(125)
 137               	.LVL13:
 138 0074 00C0      		rjmp .L21
 139               	.LVL14:
 140               	.L14:
 141               	.LM17:
 142 0076 87E0      		ldi r24,lo8(7)
 143               	.LVL15:
 144 0078 00C0      		rjmp .L21
 145               	.LVL16:
 146               	.L15:
 147               	.LM18:
 148 007a 8FE7      		ldi r24,lo8(127)
 149               	.LVL17:
 150               	.L21:
 151 007c 82BB      		out 50-32,r24
 152 007e 0895      		ret
 153               	.LVL18:
 154               	.L24:
 155               	.LM19:
 156 0080 8FE6      		ldi r24,lo8(111)
 157               	.LVL19:
 158 0082 82BB      		out 50-32,r24
 159               	.LVL20:
 160               	.L20:
 161 0084 0895      		ret
 162               	.LFE8:
 164               	.global	Pomiar
 166               	Pomiar:
 167               	.LFB9:
 168               	.LM20:
 169               	/* prologue: function */
 170               	/* frame size = 0 */
 171               	.LM21:
 172 0086 369A      		sbi 38-32,6
 173               	.L26:
 174               	.LM22:
 175 0088 3699      		sbic 38-32,6
 176 008a 00C0      		rjmp .L26
 177               	.LM23:
 178 008c 24B1      		in r18,36-32
 179 008e 35B1      		in r19,(36)+1-32
 180               	.LM24:
 181 0090 C901      		movw r24,r18
 182               	/* epilogue start */
 183 0092 0895      		ret
 184               	.LFE9:
 186               	.global	main
 188               	main:
 189               	.LFB10:
 190               	.LM25:
 191 0094 8F92      		push r8
 192 0096 9F92      		push r9
 193 0098 AF92      		push r10
 194 009a BF92      		push r11
 195 009c CF92      		push r12
 196 009e DF92      		push r13
 197 00a0 EF92      		push r14
 198 00a2 FF92      		push r15
 199 00a4 0F93      		push r16
 200 00a6 1F93      		push r17
 201 00a8 CF93      		push r28
 202 00aa DF93      		push r29
 203               	/* prologue: function */
 204               	/* frame size = 0 */
 205               	.LM26:
 206 00ac 3E9A      		sbi 39-32,6
 207               	.LM27:
 208 00ae 87B1      		in r24,39-32
 209 00b0 8760      		ori r24,lo8(7)
 210 00b2 87B9      		out 39-32,r24
 211               	.LM28:
 212 00b4 379A      		sbi 38-32,7
 213               	.LM29:
 214 00b6 86B1      		in r24,38-32
 215 00b8 8360      		ori r24,lo8(3)
 216 00ba 86B9      		out 38-32,r24
 217               	.LM30:
 218 00bc D09A      		sbi 58-32,0
 219               	.LM31:
 220 00be 84B3      		in r24,52-32
 221 00c0 8F60      		ori r24,lo8(15)
 222 00c2 84BB      		out 52-32,r24
 223               	.LBB43:
 224               	.LBB44:
 225               	.LM32:
 226 00c4 8FE7      		ldi r24,lo8(127)
 227 00c6 81BB      		out 49-32,r24
 228               	.LM33:
 229 00c8 12BA      		out 50-32,__zero_reg__
 230               	.LBE44:
 231               	.LBE43:
 232               	.LBB45:
 233               	.LM34:
 234 00ca 28E1      		ldi r18,lo8(-1000)
 235 00cc 822E      		mov r8,r18
 236 00ce 2CEF      		ldi r18,hi8(-1000)
 237 00d0 922E      		mov r9,r18
 238               	.LBB46:
 239               	.LBB47:
 240               	.LBB48:
 241               	.LBB49:
 242               	.LM35:
 243 00d2 C12C      		mov r12,__zero_reg__
 244 00d4 9AEF      		ldi r25,hi8(-1536)
 245 00d6 D92E      		mov r13,r25
 246               	.LBE49:
 247               	.LBE48:
 248               	.LBE47:
 249               	.LBE46:
 250               	.LM36:
 251 00d8 8CE9      		ldi r24,lo8(-100)
 252 00da A82E      		mov r10,r24
 253 00dc 8FEF      		ldi r24,hi8(-100)
 254 00de B82E      		mov r11,r24
 255               	.LVL21:
 256               	.L33:
 257               	.LBB53:
 258               	.LBB54:
 259               	.LM37:
 260 00e0 369A      		sbi 38-32,6
 261               	.L30:
 262               	.LM38:
 263 00e2 3699      		sbic 38-32,6
 264 00e4 00C0      		rjmp .L30
 265               	.LM39:
 266 00e6 C4B1      		in r28,36-32
 267 00e8 D5B1      		in r29,(36)+1-32
 268               	.LBE54:
 269               	.LBE53:
 270               	.LM40:
 271 00ea 82E0      		ldi r24,hi8(512)
 272 00ec C030      		cpi r28,lo8(512)
 273 00ee D807      		cpc r29,r24
 274               	.LVL22:
 275 00f0 04F4      		brge .L31
 276               	.LM41:
 277 00f2 D89A      		sbi 59-32,0
 278 00f4 00C0      		rjmp .L32
 279               	.L31:
 280               	.LM42:
 281 00f6 D898      		cbi 59-32,0
 282               	.L32:
 283               	.LM43:
 284 00f8 CE01      		movw r24,r28
 285 00fa 68EE      		ldi r22,lo8(1000)
 286 00fc 73E0      		ldi r23,hi8(1000)
 287 00fe 0E94 0000 		call __divmodhi4
 288 0102 9B01      		movw r18,r22
 289               	.LM44:
 290 0104 689D      		mul r22,r8
 291 0106 7001      		movw r14,r0
 292 0108 699D      		mul r22,r9
 293 010a F00C      		add r15,r0
 294 010c 789D      		mul r23,r8
 295 010e F00C      		add r15,r0
 296 0110 1124      		clr r1
 297               	.LVL23:
 298 0112 EC0E      		add r14,r28
 299 0114 FD1E      		adc r15,r29
 300 0116 C701      		movw r24,r14
 301 0118 64E6      		ldi r22,lo8(100)
 302 011a 70E0      		ldi r23,hi8(100)
 303               	.LVL24:
 304 011c 0E94 0000 		call __divmodhi4
 305 0120 8B01      		movw r16,r22
 306               	.LVL25:
 307               	.LM45:
 308 0122 AB9A      		sbi 53-32,3
 309               	.LM46:
 310 0124 C901      		movw r24,r18
 311               	.LVL26:
 312 0126 0E94 0000 		call display_number
 313               	.LVL27:
 314               	.LBB55:
 315               	.LBB52:
 316               	.LBB51:
 317               	.LBB50:
 318               	.LM47:
 319 012a C601      		movw r24,r12
 320               	.LVL28:
 321               	/* #APP */
 322               	 ;  105 "c:/winavr-20100110/lib/gcc/../../avr/include/util/delay_basic.h" 1
 323 012c 0197      		1: sbiw r24,1
 324 012e 01F4      		brne 1b
 325               	 ;  0 "" 2
 326               	/* #NOAPP */
 327               	.LBE50:
 328               	.LBE51:
 329               	.LBE52:
 330               	.LBE55:
 331               	.LBB56:
 332               	.LBB57:
 333               	.LM48:
 334 0130 12BA      		out 50-32,__zero_reg__
 335               	.LBE57:
 336               	.LBE56:
 337               	.LM49:
 338 0132 AB98      		cbi 53-32,3
 339               	.LM50:
 340 0134 AA9A      		sbi 53-32,2
 341               	.LM51:
 342 0136 C801      		movw r24,r16
 343               	.LVL29:
 344 0138 0E94 0000 		call display_number
 345               	.LBB58:
 346               	.LBB59:
 347               	.LBB60:
 348               	.LBB61:
 349               	.LM52:
 350 013c C601      		movw r24,r12
 351               	.LVL30:
 352               	/* #APP */
 353               	 ;  105 "c:/winavr-20100110/lib/gcc/../../avr/include/util/delay_basic.h" 1
 354 013e 0197      		1: sbiw r24,1
 355 0140 01F4      		brne 1b
 356               	 ;  0 "" 2
 357               	/* #NOAPP */
 358               	.LBE61:
 359               	.LBE60:
 360               	.LBE59:
 361               	.LBE58:
 362               	.LBB62:
 363               	.LBB63:
 364               	.LM53:
 365 0142 12BA      		out 50-32,__zero_reg__
 366               	.LBE63:
 367               	.LBE62:
 368               	.LM54:
 369 0144 AA98      		cbi 53-32,2
 370               	.LM55:
 371 0146 A99A      		sbi 53-32,1
 372               	.LM56:
 373 0148 0A9D      		mul r16,r10
 374 014a C001      		movw r24,r0
 375 014c 0B9D      		mul r16,r11
 376 014e 900D      		add r25,r0
 377 0150 1A9D      		mul r17,r10
 378 0152 900D      		add r25,r0
 379 0154 1124      		clr r1
 380               	.LVL31:
 381 0156 8E0D      		add r24,r14
 382 0158 9F1D      		adc r25,r15
 383 015a 6AE0      		ldi r22,lo8(10)
 384 015c 70E0      		ldi r23,hi8(10)
 385 015e 0E94 0000 		call __divmodhi4
 386 0162 CB01      		movw r24,r22
 387 0164 0E94 0000 		call display_number
 388               	.LBB64:
 389               	.LBB65:
 390               	.LBB66:
 391               	.LBB67:
 392               	.LM57:
 393 0168 C601      		movw r24,r12
 394               	.LVL32:
 395               	/* #APP */
 396               	 ;  105 "c:/winavr-20100110/lib/gcc/../../avr/include/util/delay_basic.h" 1
 397 016a 0197      		1: sbiw r24,1
 398 016c 01F4      		brne 1b
 399               	 ;  0 "" 2
 400               	/* #NOAPP */
 401               	.LBE67:
 402               	.LBE66:
 403               	.LBE65:
 404               	.LBE64:
 405               	.LBB68:
 406               	.LBB69:
 407               	.LM58:
 408 016e 12BA      		out 50-32,__zero_reg__
 409               	.LBE69:
 410               	.LBE68:
 411               	.LM59:
 412 0170 A998      		cbi 53-32,1
 413               	.LM60:
 414 0172 A89A      		sbi 53-32,0
 415               	.LM61:
 416 0174 CE01      		movw r24,r28
 417               	.LVL33:
 418 0176 6AE0      		ldi r22,lo8(10)
 419 0178 70E0      		ldi r23,hi8(10)
 420 017a 0E94 0000 		call __divmodhi4
 421 017e 0E94 0000 		call display_number
 422               	.LBB70:
 423               	.LBB71:
 424               	.LBB72:
 425               	.LBB73:
 426               	.LM62:
 427 0182 C601      		movw r24,r12
 428               	.LVL34:
 429               	/* #APP */
 430               	 ;  105 "c:/winavr-20100110/lib/gcc/../../avr/include/util/delay_basic.h" 1
 431 0184 0197      		1: sbiw r24,1
 432 0186 01F4      		brne 1b
 433               	 ;  0 "" 2
 434               	/* #NOAPP */
 435               	.LBE73:
 436               	.LBE72:
 437               	.LBE71:
 438               	.LBE70:
 439               	.LBB74:
 440               	.LBB75:
 441               	.LM63:
 442 0188 12BA      		out 50-32,__zero_reg__
 443               	.LBE75:
 444               	.LBE74:
 445               	.LM64:
 446 018a A898      		cbi 53-32,0
 447 018c 00C0      		rjmp .L33
 448               	.LBE45:
 449               	.LFE10:
 507               	.Letext0:
DEFINED SYMBOLS
                            *ABS*:00000000 main.c
C:\Users\User\AppData\Local\Temp/ccVFbsG2.s:2      *ABS*:0000003f __SREG__
C:\Users\User\AppData\Local\Temp/ccVFbsG2.s:3      *ABS*:0000003e __SP_H__
C:\Users\User\AppData\Local\Temp/ccVFbsG2.s:4      *ABS*:0000003d __SP_L__
C:\Users\User\AppData\Local\Temp/ccVFbsG2.s:5      *ABS*:00000034 __CCP__
C:\Users\User\AppData\Local\Temp/ccVFbsG2.s:6      *ABS*:00000000 __tmp_reg__
C:\Users\User\AppData\Local\Temp/ccVFbsG2.s:7      *ABS*:00000001 __zero_reg__
C:\Users\User\AppData\Local\Temp/ccVFbsG2.s:18     .text:00000000 init_7_seg
C:\Users\User\AppData\Local\Temp/ccVFbsG2.s:35     .text:00000008 clear_display
C:\Users\User\AppData\Local\Temp/ccVFbsG2.s:49     .text:0000000c display_number
C:\Users\User\AppData\Local\Temp/ccVFbsG2.s:166    .text:00000086 Pomiar
C:\Users\User\AppData\Local\Temp/ccVFbsG2.s:188    .text:00000094 main

UNDEFINED SYMBOLS
__divmodhi4
