   1               		.file	"lcd.c"
   2               	__SREG__ = 0x3f
   3               	__SP_H__ = 0x3e
   4               	__SP_L__ = 0x3d
   5               	__CCP__  = 0x34
   6               	__tmp_reg__ = 0
   7               	__zero_reg__ = 1
  15               	.Ltext0:
  16               	.global	delay_ms
  18               	delay_ms:
  19               	.LFB7:
  20               	.LM1:
  21               	.LVL0:
  22 0000 DF93      		push r29
  23 0002 CF93      		push r28
  24 0004 00D0      		rcall .
  25 0006 00D0      		rcall .
  26 0008 CDB7      		in r28,__SP_L__
  27 000a DEB7      		in r29,__SP_H__
  28               	/* prologue: function */
  29               	/* frame size = 4 */
  30               	.LM2:
  31 000c 1982      		std Y+1,__zero_reg__
  32 000e 1A82      		std Y+2,__zero_reg__
  33 0010 1B82      		std Y+3,__zero_reg__
  34 0012 1C82      		std Y+4,__zero_reg__
  35               	.LVL1:
  36 0014 9C01      		movw r18,r24
  37 0016 4427      		clr r20
  38 0018 37FD      		sbrc r19,7
  39 001a 4095      		com r20
  40 001c 542F      		mov r21,r20
  41               	.LVL2:
  42               	.LBB114:
  43               	.LBB115:
  44               	.LBB116:
  45               	.LBB117:
  46               	.LM3:
  47 001e 60ED      		ldi r22,lo8(2000)
  48 0020 77E0      		ldi r23,hi8(2000)
  49 0022 00C0      		rjmp .L2
  50               	.L3:
  51 0024 CB01      		movw r24,r22
  52               	.LVL3:
  53               	/* #APP */
  54               	 ;  105 "c:/winavr-20100110/lib/gcc/../../avr/include/util/delay_basic.h" 1
  55 0026 0197      		1: sbiw r24,1
  56 0028 01F4      		brne 1b
  57               	 ;  0 "" 2
  58               	/* #NOAPP */
  59               	.LBE117:
  60               	.LBE116:
  61               	.LBE115:
  62               	.LBE114:
  63               	.LM4:
  64 002a 8981      		ldd r24,Y+1
  65 002c 9A81      		ldd r25,Y+2
  66 002e AB81      		ldd r26,Y+3
  67 0030 BC81      		ldd r27,Y+4
  68               	.LVL4:
  69 0032 0196      		adiw r24,1
  70 0034 A11D      		adc r26,__zero_reg__
  71 0036 B11D      		adc r27,__zero_reg__
  72 0038 8983      		std Y+1,r24
  73 003a 9A83      		std Y+2,r25
  74 003c AB83      		std Y+3,r26
  75 003e BC83      		std Y+4,r27
  76               	.LVL5:
  77               	.L2:
  78 0040 8981      		ldd r24,Y+1
  79 0042 9A81      		ldd r25,Y+2
  80 0044 AB81      		ldd r26,Y+3
  81 0046 BC81      		ldd r27,Y+4
  82 0048 8217      		cp r24,r18
  83 004a 9307      		cpc r25,r19
  84 004c A407      		cpc r26,r20
  85 004e B507      		cpc r27,r21
  86 0050 00F0      		brlo .L3
  87               	/* epilogue start */
  88               	.LM5:
  89 0052 0F90      		pop __tmp_reg__
  90 0054 0F90      		pop __tmp_reg__
  91 0056 0F90      		pop __tmp_reg__
  92 0058 0F90      		pop __tmp_reg__
  93 005a CF91      		pop r28
  94 005c DF91      		pop r29
  95 005e 0895      		ret
  96               	.LFE7:
  98               	.global	delay_us
 100               	delay_us:
 101               	.LFB8:
 102               	.LM6:
 103               	.LVL6:
 104 0060 DF93      		push r29
 105 0062 CF93      		push r28
 106 0064 00D0      		rcall .
 107 0066 00D0      		rcall .
 108 0068 CDB7      		in r28,__SP_L__
 109 006a DEB7      		in r29,__SP_H__
 110               	/* prologue: function */
 111               	/* frame size = 4 */
 112               	.LM7:
 113 006c 1982      		std Y+1,__zero_reg__
 114 006e 1A82      		std Y+2,__zero_reg__
 115 0070 1B82      		std Y+3,__zero_reg__
 116 0072 1C82      		std Y+4,__zero_reg__
 117               	.LVL7:
 118 0074 9C01      		movw r18,r24
 119 0076 4427      		clr r20
 120 0078 37FD      		sbrc r19,7
 121 007a 4095      		com r20
 122 007c 542F      		mov r21,r20
 123               	.LVL8:
 124               	.LBB118:
 125               	.LBB119:
 126               	.LBB120:
 127               	.LBB121:
 128               	.LM8:
 129 007e 62E0      		ldi r22,lo8(2)
 130 0080 00C0      		rjmp .L6
 131               	.L7:
 132 0082 862F      		mov r24,r22
 133               	.LVL9:
 134               	/* #APP */
 135               	 ;  83 "c:/winavr-20100110/lib/gcc/../../avr/include/util/delay_basic.h" 1
 136 0084 8A95      		1: dec r24
 137 0086 01F4      		brne 1b
 138               	 ;  0 "" 2
 139               	/* #NOAPP */
 140               	.LBE121:
 141               	.LBE120:
 142               	.LBE119:
 143               	.LBE118:
 144               	.LM9:
 145 0088 8981      		ldd r24,Y+1
 146 008a 9A81      		ldd r25,Y+2
 147 008c AB81      		ldd r26,Y+3
 148 008e BC81      		ldd r27,Y+4
 149               	.LVL10:
 150 0090 0196      		adiw r24,1
 151 0092 A11D      		adc r26,__zero_reg__
 152 0094 B11D      		adc r27,__zero_reg__
 153 0096 8983      		std Y+1,r24
 154 0098 9A83      		std Y+2,r25
 155 009a AB83      		std Y+3,r26
 156 009c BC83      		std Y+4,r27
 157               	.LVL11:
 158               	.L6:
 159 009e 8981      		ldd r24,Y+1
 160 00a0 9A81      		ldd r25,Y+2
 161 00a2 AB81      		ldd r26,Y+3
 162 00a4 BC81      		ldd r27,Y+4
 163 00a6 8217      		cp r24,r18
 164 00a8 9307      		cpc r25,r19
 165 00aa A407      		cpc r26,r20
 166 00ac B507      		cpc r27,r21
 167 00ae 00F0      		brlo .L7
 168               	/* epilogue start */
 169               	.LM10:
 170 00b0 0F90      		pop __tmp_reg__
 171 00b2 0F90      		pop __tmp_reg__
 172 00b4 0F90      		pop __tmp_reg__
 173 00b6 0F90      		pop __tmp_reg__
 174 00b8 CF91      		pop r28
 175 00ba DF91      		pop r29
 176 00bc 0895      		ret
 177               	.LFE8:
 179               	.global	LCD2x16_init
 181               	LCD2x16_init:
 182               	.LFB9:
 183               	.LM11:
 184               	/* prologue: function */
 185               	/* frame size = 0 */
 186               	.LM12:
 187 00be A898      		cbi 53-32,0
 188               	.LM13:
 189 00c0 A998      		cbi 53-32,1
 190               	.LM14:
 191 00c2 AA9A      		sbi 53-32,2
 192               	.LM15:
 193 00c4 88E3      		ldi r24,lo8(56)
 194 00c6 82BB      		out 50-32,r24
 195               	.LM16:
 196 00c8 AA98      		cbi 53-32,2
 197               	.LBB122:
 198               	.LBB123:
 199               	.LBB124:
 200               	.LBB125:
 201               	.LBB126:
 202               	.LBB127:
 203               	.LM17:
 204 00ca 20EF      		ldi r18,lo8(240)
 205 00cc 30E0      		ldi r19,hi8(240)
 206 00ce C901      		movw r24,r18
 207               	.LVL12:
 208               	/* #APP */
 209               	 ;  105 "c:/winavr-20100110/lib/gcc/../../avr/include/util/delay_basic.h" 1
 210 00d0 0197      		1: sbiw r24,1
 211 00d2 01F4      		brne 1b
 212               	 ;  0 "" 2
 213               	/* #NOAPP */
 214               	.LBE127:
 215               	.LBE126:
 216               	.LBE125:
 217               	.LBE124:
 218               	.LBE123:
 219               	.LBE122:
 220               	.LM18:
 221 00d4 AA9A      		sbi 53-32,2
 222               	.LM19:
 223 00d6 8EE0      		ldi r24,lo8(14)
 224               	.LVL13:
 225 00d8 82BB      		out 50-32,r24
 226               	.LM20:
 227 00da AA98      		cbi 53-32,2
 228               	.LBB128:
 229               	.LBB129:
 230               	.LBB130:
 231               	.LBB131:
 232               	.LBB132:
 233               	.LBB133:
 234               	.LM21:
 235 00dc C901      		movw r24,r18
 236               	.LVL14:
 237               	/* #APP */
 238               	 ;  105 "c:/winavr-20100110/lib/gcc/../../avr/include/util/delay_basic.h" 1
 239 00de 0197      		1: sbiw r24,1
 240 00e0 01F4      		brne 1b
 241               	 ;  0 "" 2
 242               	/* #NOAPP */
 243               	.LBE133:
 244               	.LBE132:
 245               	.LBE131:
 246               	.LBE130:
 247               	.LBE129:
 248               	.LBE128:
 249               	.LM22:
 250 00e2 AA9A      		sbi 53-32,2
 251               	.LM23:
 252 00e4 86E0      		ldi r24,lo8(6)
 253               	.LVL15:
 254 00e6 82BB      		out 50-32,r24
 255               	.LM24:
 256 00e8 AA98      		cbi 53-32,2
 257               	.LBB134:
 258               	.LBB135:
 259               	.LBB136:
 260               	.LBB137:
 261               	.LBB138:
 262               	.LBB139:
 263               	.LM25:
 264 00ea C901      		movw r24,r18
 265               	.LVL16:
 266               	/* #APP */
 267               	 ;  105 "c:/winavr-20100110/lib/gcc/../../avr/include/util/delay_basic.h" 1
 268 00ec 0197      		1: sbiw r24,1
 269 00ee 01F4      		brne 1b
 270               	 ;  0 "" 2
 271               	/* epilogue start */
 272               	/* #NOAPP */
 273               	.LBE139:
 274               	.LBE138:
 275               	.LBE137:
 276               	.LBE136:
 277               	.LBE135:
 278               	.LBE134:
 279               	.LM26:
 280 00f0 0895      		ret
 281               	.LFE9:
 283               	.global	LCD2x16_clear
 285               	LCD2x16_clear:
 286               	.LFB10:
 287               	.LM27:
 288 00f2 DF93      		push r29
 289 00f4 CF93      		push r28
 290 00f6 00D0      		rcall .
 291 00f8 00D0      		rcall .
 292 00fa CDB7      		in r28,__SP_L__
 293 00fc DEB7      		in r29,__SP_H__
 294               	/* prologue: function */
 295               	/* frame size = 4 */
 296               	.LM28:
 297 00fe A898      		cbi 53-32,0
 298               	.LM29:
 299 0100 A998      		cbi 53-32,1
 300               	.LM30:
 301 0102 AA9A      		sbi 53-32,2
 302               	.LM31:
 303 0104 81E0      		ldi r24,lo8(1)
 304 0106 82BB      		out 50-32,r24
 305               	.LM32:
 306 0108 AA98      		cbi 53-32,2
 307               	.LBB140:
 308               	.LBB141:
 309               	.LM33:
 310 010a 1982      		std Y+1,__zero_reg__
 311 010c 1A82      		std Y+2,__zero_reg__
 312 010e 1B82      		std Y+3,__zero_reg__
 313 0110 1C82      		std Y+4,__zero_reg__
 314               	.LVL17:
 315               	.LBB142:
 316               	.LBB143:
 317               	.LBB144:
 318               	.LBB145:
 319               	.LM34:
 320 0112 20ED      		ldi r18,lo8(2000)
 321 0114 37E0      		ldi r19,hi8(2000)
 322 0116 00C0      		rjmp .L12
 323               	.L13:
 324 0118 C901      		movw r24,r18
 325               	.LVL18:
 326               	/* #APP */
 327               	 ;  105 "c:/winavr-20100110/lib/gcc/../../avr/include/util/delay_basic.h" 1
 328 011a 0197      		1: sbiw r24,1
 329 011c 01F4      		brne 1b
 330               	 ;  0 "" 2
 331               	/* #NOAPP */
 332               	.LBE145:
 333               	.LBE144:
 334               	.LBE143:
 335               	.LBE142:
 336               	.LM35:
 337 011e 8981      		ldd r24,Y+1
 338 0120 9A81      		ldd r25,Y+2
 339 0122 AB81      		ldd r26,Y+3
 340 0124 BC81      		ldd r27,Y+4
 341               	.LVL19:
 342 0126 0196      		adiw r24,1
 343 0128 A11D      		adc r26,__zero_reg__
 344 012a B11D      		adc r27,__zero_reg__
 345 012c 8983      		std Y+1,r24
 346 012e 9A83      		std Y+2,r25
 347 0130 AB83      		std Y+3,r26
 348 0132 BC83      		std Y+4,r27
 349               	.LVL20:
 350               	.L12:
 351 0134 8981      		ldd r24,Y+1
 352 0136 9A81      		ldd r25,Y+2
 353 0138 AB81      		ldd r26,Y+3
 354 013a BC81      		ldd r27,Y+4
 355 013c 8837      		cpi r24,lo8(120)
 356 013e 9105      		cpc r25,__zero_reg__
 357 0140 A105      		cpc r26,__zero_reg__
 358 0142 B105      		cpc r27,__zero_reg__
 359 0144 00F0      		brlo .L13
 360               	/* epilogue start */
 361               	.LBE141:
 362               	.LBE140:
 363               	.LM36:
 364 0146 0F90      		pop __tmp_reg__
 365 0148 0F90      		pop __tmp_reg__
 366 014a 0F90      		pop __tmp_reg__
 367 014c 0F90      		pop __tmp_reg__
 368 014e CF91      		pop r28
 369 0150 DF91      		pop r29
 370 0152 0895      		ret
 371               	.LFE10:
 373               	.global	LCD2x16_putchar
 375               	LCD2x16_putchar:
 376               	.LFB11:
 377               	.LM37:
 378               	.LVL21:
 379               	/* prologue: function */
 380               	/* frame size = 0 */
 381               	.LM38:
 382 0154 A89A      		sbi 53-32,0
 383               	.LM39:
 384 0156 A998      		cbi 53-32,1
 385               	.LM40:
 386 0158 AA9A      		sbi 53-32,2
 387               	.LM41:
 388 015a 82BB      		out 50-32,r24
 389               	.LM42:
 390 015c AA98      		cbi 53-32,2
 391               	.LBB146:
 392               	.LBB147:
 393               	.LBB148:
 394               	.LBB149:
 395               	.LBB150:
 396               	.LBB151:
 397               	.LM43:
 398 015e 80EF      		ldi r24,lo8(240)
 399 0160 90E0      		ldi r25,hi8(240)
 400               	.LVL22:
 401               	/* #APP */
 402               	 ;  105 "c:/winavr-20100110/lib/gcc/../../avr/include/util/delay_basic.h" 1
 403 0162 0197      		1: sbiw r24,1
 404 0164 01F4      		brne 1b
 405               	 ;  0 "" 2
 406               	/* epilogue start */
 407               	/* #NOAPP */
 408               	.LBE151:
 409               	.LBE150:
 410               	.LBE149:
 411               	.LBE148:
 412               	.LBE147:
 413               	.LBE146:
 414               	.LM44:
 415 0166 0895      		ret
 416               	.LFE11:
 418               	.global	LCD2x16_pos
 420               	LCD2x16_pos:
 421               	.LFB12:
 422               	.LM45:
 423               	.LVL23:
 424 0168 DF93      		push r29
 425 016a CF93      		push r28
 426 016c 00D0      		rcall .
 427 016e 00D0      		rcall .
 428 0170 CDB7      		in r28,__SP_L__
 429 0172 DEB7      		in r29,__SP_H__
 430               	/* prologue: function */
 431               	/* frame size = 4 */
 432 0174 9C01      		movw r18,r24
 433               	.LM46:
 434 0176 A898      		cbi 53-32,0
 435               	.LM47:
 436 0178 A998      		cbi 53-32,1
 437               	.LM48:
 438 017a AA9A      		sbi 53-32,2
 439               	.LBB152:
 440               	.LBB153:
 441               	.LM49:
 442 017c 1982      		std Y+1,__zero_reg__
 443 017e 1A82      		std Y+2,__zero_reg__
 444 0180 1B82      		std Y+3,__zero_reg__
 445 0182 1C82      		std Y+4,__zero_reg__
 446               	.LVL24:
 447               	.LBB154:
 448               	.LBB155:
 449               	.LBB156:
 450               	.LBB157:
 451               	.LM50:
 452 0184 40ED      		ldi r20,lo8(2000)
 453 0186 57E0      		ldi r21,hi8(2000)
 454 0188 00C0      		rjmp .L18
 455               	.LVL25:
 456               	.L19:
 457 018a CA01      		movw r24,r20
 458               	.LVL26:
 459               	/* #APP */
 460               	 ;  105 "c:/winavr-20100110/lib/gcc/../../avr/include/util/delay_basic.h" 1
 461 018c 0197      		1: sbiw r24,1
 462 018e 01F4      		brne 1b
 463               	 ;  0 "" 2
 464               	/* #NOAPP */
 465               	.LBE157:
 466               	.LBE156:
 467               	.LBE155:
 468               	.LBE154:
 469               	.LM51:
 470 0190 8981      		ldd r24,Y+1
 471 0192 9A81      		ldd r25,Y+2
 472 0194 AB81      		ldd r26,Y+3
 473 0196 BC81      		ldd r27,Y+4
 474               	.LVL27:
 475 0198 0196      		adiw r24,1
 476 019a A11D      		adc r26,__zero_reg__
 477 019c B11D      		adc r27,__zero_reg__
 478 019e 8983      		std Y+1,r24
 479 01a0 9A83      		std Y+2,r25
 480 01a2 AB83      		std Y+3,r26
 481 01a4 BC83      		std Y+4,r27
 482               	.LVL28:
 483               	.L18:
 484 01a6 8981      		ldd r24,Y+1
 485 01a8 9A81      		ldd r25,Y+2
 486 01aa AB81      		ldd r26,Y+3
 487 01ac BC81      		ldd r27,Y+4
 488 01ae 0097      		sbiw r24,0
 489 01b0 A105      		cpc r26,__zero_reg__
 490 01b2 B105      		cpc r27,__zero_reg__
 491 01b4 01F0      		breq .L19
 492               	.LBE153:
 493               	.LBE152:
 494               	.LM52:
 495 01b6 6150      		subi r22,lo8(-(-1))
 496               	.LVL29:
 497 01b8 2F5F      		subi r18,lo8(-(1))
 498 01ba 3F4F      		sbci r19,hi8(-(1))
 499 01bc 86E0      		ldi r24,6
 500 01be 220F      	1:	lsl r18
 501 01c0 331F      		rol r19
 502 01c2 8A95      		dec r24
 503 01c4 01F4      		brne 1b
 504 01c6 620F      		add r22,r18
 505 01c8 62BB      		out 50-32,r22
 506               	.LBB158:
 507               	.LBB159:
 508               	.LM53:
 509 01ca 1982      		std Y+1,__zero_reg__
 510 01cc 1A82      		std Y+2,__zero_reg__
 511 01ce 1B82      		std Y+3,__zero_reg__
 512 01d0 1C82      		std Y+4,__zero_reg__
 513               	.LVL30:
 514               	.LBB160:
 515               	.LBB161:
 516               	.LBB162:
 517               	.LBB163:
 518               	.LM54:
 519 01d2 20ED      		ldi r18,lo8(2000)
 520 01d4 37E0      		ldi r19,hi8(2000)
 521               	.LVL31:
 522 01d6 00C0      		rjmp .L20
 523               	.L21:
 524 01d8 C901      		movw r24,r18
 525               	.LVL32:
 526               	/* #APP */
 527               	 ;  105 "c:/winavr-20100110/lib/gcc/../../avr/include/util/delay_basic.h" 1
 528 01da 0197      		1: sbiw r24,1
 529 01dc 01F4      		brne 1b
 530               	 ;  0 "" 2
 531               	/* #NOAPP */
 532               	.LBE163:
 533               	.LBE162:
 534               	.LBE161:
 535               	.LBE160:
 536               	.LM55:
 537 01de 8981      		ldd r24,Y+1
 538 01e0 9A81      		ldd r25,Y+2
 539 01e2 AB81      		ldd r26,Y+3
 540 01e4 BC81      		ldd r27,Y+4
 541               	.LVL33:
 542 01e6 0196      		adiw r24,1
 543 01e8 A11D      		adc r26,__zero_reg__
 544 01ea B11D      		adc r27,__zero_reg__
 545 01ec 8983      		std Y+1,r24
 546 01ee 9A83      		std Y+2,r25
 547 01f0 AB83      		std Y+3,r26
 548 01f2 BC83      		std Y+4,r27
 549               	.LVL34:
 550               	.L20:
 551 01f4 8981      		ldd r24,Y+1
 552 01f6 9A81      		ldd r25,Y+2
 553 01f8 AB81      		ldd r26,Y+3
 554 01fa BC81      		ldd r27,Y+4
 555 01fc 0097      		sbiw r24,0
 556 01fe A105      		cpc r26,__zero_reg__
 557 0200 B105      		cpc r27,__zero_reg__
 558 0202 01F0      		breq .L21
 559               	.LBE159:
 560               	.LBE158:
 561               	.LM56:
 562 0204 AA98      		cbi 53-32,2
 563               	.LBB164:
 564               	.LBB165:
 565               	.LBB166:
 566               	.LBB167:
 567               	.LBB168:
 568               	.LBB169:
 569               	.LM57:
 570 0206 80EF      		ldi r24,lo8(240)
 571 0208 90E0      		ldi r25,hi8(240)
 572               	.LVL35:
 573               	/* #APP */
 574               	 ;  105 "c:/winavr-20100110/lib/gcc/../../avr/include/util/delay_basic.h" 1
 575 020a 0197      		1: sbiw r24,1
 576 020c 01F4      		brne 1b
 577               	 ;  0 "" 2
 578               	/* epilogue start */
 579               	/* #NOAPP */
 580               	.LBE169:
 581               	.LBE168:
 582               	.LBE167:
 583               	.LBE166:
 584               	.LBE165:
 585               	.LBE164:
 586               	.LM58:
 587 020e 0F90      		pop __tmp_reg__
 588 0210 0F90      		pop __tmp_reg__
 589 0212 0F90      		pop __tmp_reg__
 590 0214 0F90      		pop __tmp_reg__
 591 0216 CF91      		pop r28
 592 0218 DF91      		pop r29
 593 021a 0895      		ret
 594               	.LFE12:
 596               		.data
 597               	.LC1:
 598 0000 5350 3D25 		.string	"SP=%02d%% PV=%03d.%d%%"
 598      3032 6425 
 598      2520 5056 
 598      3D25 3033 
 598      642E 2564 
 599               	.LC2:
 600 0017 483D 2530 		.string	"H=%02d%%  E=%+04d.%d%%"
 600      3264 2525 
 600      2020 453D 
 600      252B 3034 
 600      642E 2564 
 601               	.LC0:
 602 002e 7777 772D 		.string	"www-> are.net.pl"
 602      3E20 6172 
 602      652E 6E65 
 602      742E 706C 
 602      00
 603               		.text
 604               	.global	main
 606               	main:
 607               	.LFB13:
 608               	.LM59:
 609 021c 2F92      		push r2
 610 021e 3F92      		push r3
 611 0220 4F92      		push r4
 612 0222 5F92      		push r5
 613 0224 6F92      		push r6
 614 0226 7F92      		push r7
 615 0228 8F92      		push r8
 616 022a 9F92      		push r9
 617 022c AF92      		push r10
 618 022e BF92      		push r11
 619 0230 CF92      		push r12
 620 0232 DF92      		push r13
 621 0234 EF92      		push r14
 622 0236 FF92      		push r15
 623 0238 0F93      		push r16
 624 023a 1F93      		push r17
 625 023c DF93      		push r29
 626 023e CF93      		push r28
 627 0240 CDB7      		in r28,__SP_L__
 628 0242 DEB7      		in r29,__SP_H__
 629 0244 E697      		sbiw r28,54
 630 0246 0FB6      		in __tmp_reg__,__SREG__
 631 0248 F894      		cli
 632 024a DEBF      		out __SP_H__,r29
 633 024c 0FBE      		out __SREG__,__tmp_reg__
 634 024e CDBF      		out __SP_L__,r28
 635               	/* prologue: function */
 636               	/* frame size = 54 */
 637               	.LM60:
 638 0250 DE01      		movw r26,r28
 639 0252 1596      		adiw r26,5
 640 0254 E0E0      		ldi r30,lo8(.LC0)
 641 0256 F0E0      		ldi r31,hi8(.LC0)
 642 0258 80E1      		ldi r24,lo8(16)
 643               	.L24:
 644 025a 0190      		ld r0,Z+
 645 025c 0D92      		st X+,r0
 646 025e 8150      		subi r24,lo8(-(-1))
 647 0260 01F4      		brne .L24
 648               	.LM61:
 649 0262 1ABA      		out 58-32,__zero_reg__
 650               	.LM62:
 651 0264 8FEF      		ldi r24,lo8(-1)
 652 0266 81BB      		out 49-32,r24
 653               	.LM63:
 654 0268 12BA      		out 50-32,__zero_reg__
 655               	.LM64:
 656 026a 84BB      		out 52-32,r24
 657               	.LM65:
 658 026c AB9A      		sbi 53-32,3
 659               	.LM66:
 660 026e 17BA      		out 55-32,__zero_reg__
 661               	.LM67:
 662 0270 8FE0      		ldi r24,lo8(15)
 663 0272 88BB      		out 56-32,r24
 664               	.LM68:
 665 0274 80E4      		ldi r24,lo8(64)
 666 0276 87B9      		out 39-32,r24
 667               	.LM69:
 668 0278 80EE      		ldi r24,lo8(-32)
 669 027a 86B9      		out 38-32,r24
 670 027c 80ED      		ldi r24,lo8(2000)
 671 027e 97E0      		ldi r25,hi8(2000)
 672               	.LVL36:
 673               	.LBB170:
 674               	.LBB171:
 675               	.LBB172:
 676               	.LBB173:
 677               	.LM70:
 678 0280 28EC      		ldi r18,lo8(200)
 679 0282 30E0      		ldi r19,hi8(200)
 680               	.L25:
 681 0284 F901      		movw r30,r18
 682               	.LVL37:
 683               	/* #APP */
 684               	 ;  105 "c:/winavr-20100110/lib/gcc/../../avr/include/util/delay_basic.h" 1
 685 0286 3197      		1: sbiw r30,1
 686 0288 01F4      		brne 1b
 687               	 ;  0 "" 2
 688               	/* #NOAPP */
 689               	.LBE173:
 690               	.LBE172:
 691               	.LM71:
 692 028a 0197      		sbiw r24,1
 693               	.LM72:
 694 028c 01F4      		brne .L25
 695               	.LBE171:
 696               	.LBE170:
 697               	.LM73:
 698 028e 0E94 0000 		call LCD2x16_init
 699               	.LVL38:
 700               	.LM74:
 701 0292 0E94 0000 		call LCD2x16_clear
 702               	.LM75:
 703 0296 0E94 0000 		call LCD2x16_clear
 704 029a 8E01      		movw r16,r28
 705 029c 0B5F      		subi r16,lo8(-(5))
 706 029e 1F4F      		sbci r17,hi8(-(5))
 707               	.LM76:
 708 02a0 B5E1      		ldi r27,lo8(21)
 709 02a2 EB2E      		mov r14,r27
 710 02a4 F12C      		mov r15,__zero_reg__
 711 02a6 EC0E      		add r14,r28
 712 02a8 FD1E      		adc r15,r29
 713               	.L26:
 714               	.LM77:
 715 02aa D801      		movw r26,r16
 716 02ac 8D91      		ld r24,X+
 717 02ae 8D01      		movw r16,r26
 718 02b0 90E0      		ldi r25,lo8(0)
 719 02b2 0E94 0000 		call LCD2x16_putchar
 720               	.LM78:
 721 02b6 0E15      		cp r16,r14
 722 02b8 1F05      		cpc r17,r15
 723 02ba 01F4      		brne .L26
 724 02bc A8E5      		ldi r26,lo8(600)
 725 02be 6A2E      		mov r6,r26
 726 02c0 A2E0      		ldi r26,hi8(600)
 727 02c2 7A2E      		mov r7,r26
 728               	.LVL39:
 729 02c4 F0E5      		ldi r31,lo8(80)
 730 02c6 AF2E      		mov r10,r31
 731 02c8 B12C      		mov r11,__zero_reg__
 732               	.LVL40:
 733 02ca 8824      		clr r8
 734 02cc 9924      		clr r9
 735               	.LVL41:
 736               	.LM79:
 737 02ce E5E1      		ldi r30,lo8(21)
 738 02d0 4E2E      		mov r4,r30
 739 02d2 512C      		mov r5,__zero_reg__
 740 02d4 4C0E      		add r4,r28
 741 02d6 5D1E      		adc r5,r29
 742               	.LM80:
 743 02d8 FE01      		movw r30,r28
 744 02da B596      		adiw r30,37
 745 02dc FEAB      		std Y+54,r31
 746 02de EDAB      		std Y+53,r30
 747               	.LBB174:
 748               	.LBB175:
 749               	.LBB176:
 750               	.LBB177:
 751               	.LBB178:
 752               	.LBB179:
 753               	.LM81:
 754 02e0 70ED      		ldi r23,lo8(2000)
 755 02e2 272E      		mov r2,r23
 756 02e4 77E0      		ldi r23,hi8(2000)
 757 02e6 372E      		mov r3,r23
 758               	.LVL42:
 759               	.L40:
 760               	.LBE179:
 761               	.LBE178:
 762               	.LBE177:
 763               	.LBE176:
 764               	.LBE175:
 765               	.LBE174:
 766               	.LM82:
 767 02e8 B099      		sbic 54-32,0
 768 02ea 00C0      		rjmp .L27
 769 02ec 64EF      		ldi r22,lo8(500)
 770 02ee 662E      		mov r6,r22
 771 02f0 61E0      		ldi r22,hi8(500)
 772 02f2 762E      		mov r7,r22
 773 02f4 00C0      		rjmp .L28
 774               	.L27:
 775               	.LM83:
 776 02f6 B199      		sbic 54-32,1
 777 02f8 00C0      		rjmp .L29
 778 02fa 50E9      		ldi r21,lo8(400)
 779 02fc 652E      		mov r6,r21
 780 02fe 51E0      		ldi r21,hi8(400)
 781 0300 752E      		mov r7,r21
 782 0302 00C0      		rjmp .L28
 783               	.L29:
 784               	.LM84:
 785 0304 B299      		sbic 54-32,2
 786 0306 00C0      		rjmp .L30
 787 0308 48E2      		ldi r20,lo8(40)
 788 030a A42E      		mov r10,r20
 789 030c B12C      		mov r11,__zero_reg__
 790 030e 00C0      		rjmp .L28
 791               	.L30:
 792               	.LM85:
 793 0310 B399      		sbic 54-32,3
 794 0312 00C0      		rjmp .L28
 795 0314 34E6      		ldi r19,lo8(100)
 796 0316 A32E      		mov r10,r19
 797 0318 B12C      		mov r11,__zero_reg__
 798               	.L28:
 799               	.LM86:
 800 031a 64B1      		in r22,36-32
 801 031c 75B1      		in r23,(36)+1-32
 802 031e 80E0      		ldi r24,lo8(0)
 803 0320 90E0      		ldi r25,hi8(0)
 804 0322 28EE      		ldi r18,lo8(1000)
 805 0324 33E0      		ldi r19,hi8(1000)
 806 0326 40E0      		ldi r20,hlo8(1000)
 807 0328 50E0      		ldi r21,hhi8(1000)
 808 032a 0E94 0000 		call __mulsi3
 809 032e 2FEF      		ldi r18,lo8(1023)
 810 0330 33E0      		ldi r19,hi8(1023)
 811 0332 40E0      		ldi r20,hlo8(1023)
 812 0334 50E0      		ldi r21,hhi8(1023)
 813 0336 0E94 0000 		call __divmodsi4
 814 033a 8901      		movw r16,r18
 815               	.LVL43:
 816               	.LM87:
 817 033c 7301      		movw r14,r6
 818 033e E21A      		sub r14,r18
 819 0340 F30A      		sbc r15,r19
 820               	.LM88:
 821 0342 8114      		cp r8,__zero_reg__
 822 0344 9104      		cpc r9,__zero_reg__
 823 0346 01F0      		breq .L31
 824               	.LVL44:
 825               	.LM89:
 826 0348 C501      		movw r24,r10
 827 034a 62E0      		ldi r22,lo8(2)
 828 034c 70E0      		ldi r23,hi8(2)
 829 034e 0E94 0000 		call __divmodhi4
 830 0352 7095      		com r23
 831 0354 6195      		neg r22
 832 0356 7F4F      		sbci r23,lo8(-1)
 833 0358 E616      		cp r14,r22
 834 035a F706      		cpc r15,r23
 835 035c 04F4      		brge .L47
 836               	.L32:
 837               	.LM90:
 838 035e AB9A      		sbi 53-32,3
 839 0360 8824      		clr r8
 840 0362 9924      		clr r9
 841 0364 00C0      		rjmp .L33
 842               	.L31:
 843               	.LM91:
 844 0366 C501      		movw r24,r10
 845 0368 9595      		asr r25
 846 036a 8795      		ror r24
 847               	.LVL45:
 848 036c 8E15      		cp r24,r14
 849 036e 9F05      		cpc r25,r15
 850 0370 04F4      		brge .L33
 851               	.LM92:
 852 0372 AB98      		cbi 53-32,3
 853               	.LVL46:
 854               	.L47:
 855 0374 91E0      		ldi r25,lo8(1)
 856 0376 892E      		mov r8,r25
 857 0378 912C      		mov r9,__zero_reg__
 858               	.L33:
 859               	.LM93:
 860 037a 81E0      		ldi r24,lo8(1)
 861 037c 90E0      		ldi r25,hi8(1)
 862 037e 61E0      		ldi r22,lo8(1)
 863 0380 70E0      		ldi r23,hi8(1)
 864 0382 0E94 0000 		call LCD2x16_pos
 865               	.LM94:
 866 0386 8DB7      		in r24,__SP_L__
 867 0388 9EB7      		in r25,__SP_H__
 868 038a 0A97      		sbiw r24,10
 869 038c 0FB6      		in __tmp_reg__,__SREG__
 870 038e F894      		cli
 871 0390 9EBF      		out __SP_H__,r25
 872 0392 0FBE      		out __SREG__,__tmp_reg__
 873 0394 8DBF      		out __SP_L__,r24
 874 0396 EDB7      		in r30,__SP_L__
 875 0398 FEB7      		in r31,__SP_H__
 876 039a 3196      		adiw r30,1
 877 039c ADB7      		in r26,__SP_L__
 878 039e BEB7      		in r27,__SP_H__
 879 03a0 1296      		adiw r26,1+1
 880 03a2 5C92      		st X,r5
 881 03a4 4E92      		st -X,r4
 882 03a6 1197      		sbiw r26,1
 883 03a8 80E0      		ldi r24,lo8(.LC1)
 884 03aa 90E0      		ldi r25,hi8(.LC1)
 885 03ac 9383      		std Z+3,r25
 886 03ae 8283      		std Z+2,r24
 887 03b0 C301      		movw r24,r6
 888 03b2 6AE0      		ldi r22,lo8(10)
 889 03b4 70E0      		ldi r23,hi8(10)
 890 03b6 0E94 0000 		call __divmodhi4
 891 03ba 7583      		std Z+5,r23
 892 03bc 6483      		std Z+4,r22
 893 03be C801      		movw r24,r16
 894 03c0 6AE0      		ldi r22,lo8(10)
 895 03c2 70E0      		ldi r23,hi8(10)
 896 03c4 0E94 0000 		call __divmodhi4
 897 03c8 7783      		std Z+7,r23
 898 03ca 6683      		std Z+6,r22
 899 03cc C801      		movw r24,r16
 900 03ce 6AE0      		ldi r22,lo8(10)
 901 03d0 70E0      		ldi r23,hi8(10)
 902 03d2 0E94 0000 		call __divmodhi4
 903 03d6 9187      		std Z+9,r25
 904 03d8 8087      		std Z+8,r24
 905 03da 0E94 0000 		call sprintf
 906 03de 6201      		movw r12,r4
 907 03e0 8201      		movw r16,r4
 908               	.LVL47:
 909 03e2 ADB7      		in r26,__SP_L__
 910 03e4 BEB7      		in r27,__SP_H__
 911 03e6 1A96      		adiw r26,10
 912 03e8 0FB6      		in __tmp_reg__,__SREG__
 913 03ea F894      		cli
 914 03ec BEBF      		out __SP_H__,r27
 915 03ee 0FBE      		out __SREG__,__tmp_reg__
 916 03f0 ADBF      		out __SP_L__,r26
 917               	.L34:
 918               	.LM95:
 919 03f2 F801      		movw r30,r16
 920 03f4 8191      		ld r24,Z+
 921 03f6 8F01      		movw r16,r30
 922 03f8 90E0      		ldi r25,lo8(0)
 923 03fa 0E94 0000 		call LCD2x16_putchar
 924               	.LM96:
 925 03fe 8DA9      		ldd r24,Y+53
 926 0400 9EA9      		ldd r25,Y+54
 927 0402 0817      		cp r16,r24
 928 0404 1907      		cpc r17,r25
 929 0406 01F4      		brne .L34
 930               	.LM97:
 931 0408 82E0      		ldi r24,lo8(2)
 932 040a 90E0      		ldi r25,hi8(2)
 933 040c 61E0      		ldi r22,lo8(1)
 934 040e 70E0      		ldi r23,hi8(1)
 935 0410 0E94 0000 		call LCD2x16_pos
 936               	.LM98:
 937 0414 F7FE      		sbrs r15,7
 938 0416 00C0      		rjmp .L35
 939 0418 8827      		clr r24
 940 041a 9927      		clr r25
 941 041c 8E19      		sub r24,r14
 942 041e 9F09      		sbc r25,r15
 943 0420 00C0      		rjmp .L48
 944               	.L35:
 945 0422 C701      		movw r24,r14
 946               	.L48:
 947 0424 6AE0      		ldi r22,lo8(10)
 948 0426 70E0      		ldi r23,hi8(10)
 949 0428 0E94 0000 		call __divmodhi4
 950 042c 382F      		mov r19,r24
 951 042e 292F      		mov r18,r25
 952 0430 ADB7      		in r26,__SP_L__
 953 0432 BEB7      		in r27,__SP_H__
 954 0434 1A97      		sbiw r26,10
 955 0436 0FB6      		in __tmp_reg__,__SREG__
 956 0438 F894      		cli
 957 043a BEBF      		out __SP_H__,r27
 958 043c 0FBE      		out __SREG__,__tmp_reg__
 959 043e ADBF      		out __SP_L__,r26
 960 0440 EDB7      		in r30,__SP_L__
 961 0442 FEB7      		in r31,__SP_H__
 962 0444 3196      		adiw r30,1
 963 0446 1296      		adiw r26,1+1
 964 0448 5C92      		st X,r5
 965 044a 4E92      		st -X,r4
 966 044c 1197      		sbiw r26,1
 967 044e 80E0      		ldi r24,lo8(.LC2)
 968 0450 90E0      		ldi r25,hi8(.LC2)
 969 0452 9383      		std Z+3,r25
 970 0454 8283      		std Z+2,r24
 971 0456 C501      		movw r24,r10
 972 0458 6AE0      		ldi r22,lo8(10)
 973 045a 70E0      		ldi r23,hi8(10)
 974 045c 0E94 0000 		call __divmodhi4
 975 0460 7583      		std Z+5,r23
 976 0462 6483      		std Z+4,r22
 977 0464 C701      		movw r24,r14
 978 0466 6AE0      		ldi r22,lo8(10)
 979 0468 70E0      		ldi r23,hi8(10)
 980 046a 0E94 0000 		call __divmodhi4
 981 046e 7783      		std Z+7,r23
 982 0470 6683      		std Z+6,r22
 983 0472 3087      		std Z+8,r19
 984 0474 2187      		std Z+9,r18
 985 0476 0E94 0000 		call sprintf
 986 047a ADB7      		in r26,__SP_L__
 987 047c BEB7      		in r27,__SP_H__
 988 047e 1A96      		adiw r26,10
 989 0480 0FB6      		in __tmp_reg__,__SREG__
 990 0482 F894      		cli
 991 0484 BEBF      		out __SP_H__,r27
 992 0486 0FBE      		out __SREG__,__tmp_reg__
 993 0488 ADBF      		out __SP_L__,r26
 994               	.L37:
 995               	.LM99:
 996 048a F601      		movw r30,r12
 997 048c 8191      		ld r24,Z+
 998 048e 6F01      		movw r12,r30
 999 0490 90E0      		ldi r25,lo8(0)
 1000 0492 0E94 0000 		call LCD2x16_putchar
 1001               	.LM100:
 1002 0496 C016      		cp r12,r16
 1003 0498 D106      		cpc r13,r17
 1004 049a 01F4      		brne .L37
 1005               	.LBB185:
 1006               	.LBB184:
 1007               	.LM101:
 1008 049c 1982      		std Y+1,__zero_reg__
 1009 049e 1A82      		std Y+2,__zero_reg__
 1010 04a0 1B82      		std Y+3,__zero_reg__
 1011 04a2 1C82      		std Y+4,__zero_reg__
 1012               	.LVL48:
 1013 04a4 00C0      		rjmp .L38
 1014               	.L49:
 1015               	.LBB183:
 1016               	.LBB182:
 1017               	.LBB181:
 1018               	.LBB180:
 1019               	.LM102:
 1020 04a6 C101      		movw r24,r2
 1021               	.LVL49:
 1022               	/* #APP */
 1023               	 ;  105 "c:/winavr-20100110/lib/gcc/../../avr/include/util/delay_basic.h" 1
 1024 04a8 0197      		1: sbiw r24,1
 1025 04aa 01F4      		brne 1b
 1026               	 ;  0 "" 2
 1027               	/* #NOAPP */
 1028               	.LBE180:
 1029               	.LBE181:
 1030               	.LBE182:
 1031               	.LBE183:
 1032               	.LM103:
 1033 04ac 8981      		ldd r24,Y+1
 1034 04ae 9A81      		ldd r25,Y+2
 1035 04b0 AB81      		ldd r26,Y+3
 1036 04b2 BC81      		ldd r27,Y+4
 1037               	.LVL50:
 1038 04b4 0196      		adiw r24,1
 1039 04b6 A11D      		adc r26,__zero_reg__
 1040 04b8 B11D      		adc r27,__zero_reg__
 1041 04ba 8983      		std Y+1,r24
 1042 04bc 9A83      		std Y+2,r25
 1043 04be AB83      		std Y+3,r26
 1044 04c0 BC83      		std Y+4,r27
 1045               	.LVL51:
 1046               	.L38:
 1047 04c2 8981      		ldd r24,Y+1
 1048 04c4 9A81      		ldd r25,Y+2
 1049 04c6 AB81      		ldd r26,Y+3
 1050 04c8 BC81      		ldd r27,Y+4
 1051 04ca 8436      		cpi r24,lo8(100)
 1052 04cc 9105      		cpc r25,__zero_reg__
 1053 04ce A105      		cpc r26,__zero_reg__
 1054 04d0 B105      		cpc r27,__zero_reg__
 1055 04d2 00F0      		brlo .+2
 1056 04d4 00C0      		rjmp .L40
 1057 04d6 00C0      		rjmp .L49
 1058               	.LBE184:
 1059               	.LBE185:
 1060               	.LFE13:
 1134               	.Letext0:
DEFINED SYMBOLS
                            *ABS*:00000000 lcd.c
C:\Users\STUDEN~1\AppData\Local\Temp/cccbn2Dk.s:2      *ABS*:0000003f __SREG__
C:\Users\STUDEN~1\AppData\Local\Temp/cccbn2Dk.s:3      *ABS*:0000003e __SP_H__
C:\Users\STUDEN~1\AppData\Local\Temp/cccbn2Dk.s:4      *ABS*:0000003d __SP_L__
C:\Users\STUDEN~1\AppData\Local\Temp/cccbn2Dk.s:5      *ABS*:00000034 __CCP__
C:\Users\STUDEN~1\AppData\Local\Temp/cccbn2Dk.s:6      *ABS*:00000000 __tmp_reg__
C:\Users\STUDEN~1\AppData\Local\Temp/cccbn2Dk.s:7      *ABS*:00000001 __zero_reg__
C:\Users\STUDEN~1\AppData\Local\Temp/cccbn2Dk.s:18     .text:00000000 delay_ms
C:\Users\STUDEN~1\AppData\Local\Temp/cccbn2Dk.s:100    .text:00000060 delay_us
C:\Users\STUDEN~1\AppData\Local\Temp/cccbn2Dk.s:181    .text:000000be LCD2x16_init
C:\Users\STUDEN~1\AppData\Local\Temp/cccbn2Dk.s:285    .text:000000f2 LCD2x16_clear
C:\Users\STUDEN~1\AppData\Local\Temp/cccbn2Dk.s:375    .text:00000154 LCD2x16_putchar
C:\Users\STUDEN~1\AppData\Local\Temp/cccbn2Dk.s:420    .text:00000168 LCD2x16_pos
C:\Users\STUDEN~1\AppData\Local\Temp/cccbn2Dk.s:606    .text:0000021c main

UNDEFINED SYMBOLS
__mulsi3
__divmodsi4
__divmodhi4
sprintf
__do_copy_data
