   1               		.file	"serwo.c"
   2               	__SREG__ = 0x3f
   3               	__SP_H__ = 0x3e
   4               	__SP_L__ = 0x3d
   5               	__CCP__  = 0x34
   6               	__tmp_reg__ = 0
   7               	__zero_reg__ = 1
  15               	.Ltext0:
  16               	.global	delay_ms
  18               	delay_ms:
  19               	.LFB6:
  20               	.LM1:
  21               	.LVL0:
  22 0000 DF93      		push r29
  23 0002 CF93      		push r28
  24 0004 00D0      		rcall .
  25 0006 00D0      		rcall .
  26 0008 CDB7      		in r28,__SP_L__
  27 000a DEB7      		in r29,__SP_H__
  28               	/* prologue: function */
  29               	/* frame size = 4 */
  30               	.LM2:
  31 000c 1982      		std Y+1,__zero_reg__
  32 000e 1A82      		std Y+2,__zero_reg__
  33 0010 1B82      		std Y+3,__zero_reg__
  34 0012 1C82      		std Y+4,__zero_reg__
  35               	.LVL1:
  36 0014 9C01      		movw r18,r24
  37 0016 4427      		clr r20
  38 0018 37FD      		sbrc r19,7
  39 001a 4095      		com r20
  40 001c 542F      		mov r21,r20
  41               	.LVL2:
  42               	.LBB58:
  43               	.LBB59:
  44               	.LBB60:
  45               	.LBB61:
  46               	.LM3:
  47 001e 6AEF      		ldi r22,lo8(250)
  48 0020 70E0      		ldi r23,hi8(250)
  49 0022 00C0      		rjmp .L2
  50               	.L3:
  51 0024 CB01      		movw r24,r22
  52               	.LVL3:
  53               	/* #APP */
  54               	 ;  105 "c:/winavr-20100110/lib/gcc/../../avr/include/util/delay_basic.h" 1
  55 0026 0197      		1: sbiw r24,1
  56 0028 01F4      		brne 1b
  57               	 ;  0 "" 2
  58               	/* #NOAPP */
  59               	.LBE61:
  60               	.LBE60:
  61               	.LBE59:
  62               	.LBE58:
  63               	.LM4:
  64 002a 8981      		ldd r24,Y+1
  65 002c 9A81      		ldd r25,Y+2
  66 002e AB81      		ldd r26,Y+3
  67 0030 BC81      		ldd r27,Y+4
  68               	.LVL4:
  69 0032 0196      		adiw r24,1
  70 0034 A11D      		adc r26,__zero_reg__
  71 0036 B11D      		adc r27,__zero_reg__
  72 0038 8983      		std Y+1,r24
  73 003a 9A83      		std Y+2,r25
  74 003c AB83      		std Y+3,r26
  75 003e BC83      		std Y+4,r27
  76               	.LVL5:
  77               	.L2:
  78 0040 8981      		ldd r24,Y+1
  79 0042 9A81      		ldd r25,Y+2
  80 0044 AB81      		ldd r26,Y+3
  81 0046 BC81      		ldd r27,Y+4
  82 0048 8217      		cp r24,r18
  83 004a 9307      		cpc r25,r19
  84 004c A407      		cpc r26,r20
  85 004e B507      		cpc r27,r21
  86 0050 00F0      		brlo .L3
  87               	/* epilogue start */
  88               	.LM5:
  89 0052 0F90      		pop __tmp_reg__
  90 0054 0F90      		pop __tmp_reg__
  91 0056 0F90      		pop __tmp_reg__
  92 0058 0F90      		pop __tmp_reg__
  93 005a CF91      		pop r28
  94 005c DF91      		pop r29
  95 005e 0895      		ret
  96               	.LFE6:
  98               	.global	delay_us
 100               	delay_us:
 101               	.LFB7:
 102               	.LM6:
 103               	.LVL6:
 104 0060 DF93      		push r29
 105 0062 CF93      		push r28
 106 0064 00D0      		rcall .
 107 0066 00D0      		rcall .
 108 0068 CDB7      		in r28,__SP_L__
 109 006a DEB7      		in r29,__SP_H__
 110               	/* prologue: function */
 111               	/* frame size = 4 */
 112               	.LM7:
 113 006c 1982      		std Y+1,__zero_reg__
 114 006e 1A82      		std Y+2,__zero_reg__
 115 0070 1B82      		std Y+3,__zero_reg__
 116 0072 1C82      		std Y+4,__zero_reg__
 117               	.LVL7:
 118 0074 9C01      		movw r18,r24
 119 0076 4427      		clr r20
 120 0078 37FD      		sbrc r19,7
 121 007a 4095      		com r20
 122 007c 542F      		mov r21,r20
 123               	.LVL8:
 124               	.LBB62:
 125               	.LBB63:
 126               	.LBB64:
 127               	.LBB65:
 128               	.LM8:
 129 007e 61E0      		ldi r22,lo8(1)
 130 0080 00C0      		rjmp .L6
 131               	.L7:
 132 0082 862F      		mov r24,r22
 133               	.LVL9:
 134               	/* #APP */
 135               	 ;  83 "c:/winavr-20100110/lib/gcc/../../avr/include/util/delay_basic.h" 1
 136 0084 8A95      		1: dec r24
 137 0086 01F4      		brne 1b
 138               	 ;  0 "" 2
 139               	/* #NOAPP */
 140               	.LBE65:
 141               	.LBE64:
 142               	.LBE63:
 143               	.LBE62:
 144               	.LM9:
 145 0088 8981      		ldd r24,Y+1
 146 008a 9A81      		ldd r25,Y+2
 147 008c AB81      		ldd r26,Y+3
 148 008e BC81      		ldd r27,Y+4
 149               	.LVL10:
 150 0090 0196      		adiw r24,1
 151 0092 A11D      		adc r26,__zero_reg__
 152 0094 B11D      		adc r27,__zero_reg__
 153 0096 8983      		std Y+1,r24
 154 0098 9A83      		std Y+2,r25
 155 009a AB83      		std Y+3,r26
 156 009c BC83      		std Y+4,r27
 157               	.LVL11:
 158               	.L6:
 159 009e 8981      		ldd r24,Y+1
 160 00a0 9A81      		ldd r25,Y+2
 161 00a2 AB81      		ldd r26,Y+3
 162 00a4 BC81      		ldd r27,Y+4
 163 00a6 8217      		cp r24,r18
 164 00a8 9307      		cpc r25,r19
 165 00aa A407      		cpc r26,r20
 166 00ac B507      		cpc r27,r21
 167 00ae 00F0      		brlo .L7
 168               	/* epilogue start */
 169               	.LM10:
 170 00b0 0F90      		pop __tmp_reg__
 171 00b2 0F90      		pop __tmp_reg__
 172 00b4 0F90      		pop __tmp_reg__
 173 00b6 0F90      		pop __tmp_reg__
 174 00b8 CF91      		pop r28
 175 00ba DF91      		pop r29
 176 00bc 0895      		ret
 177               	.LFE7:
 179               	.global	main
 181               	main:
 182               	.LFB8:
 183               	.LM11:
 184 00be DF93      		push r29
 185 00c0 CF93      		push r28
 186 00c2 00D0      		rcall .
 187 00c4 00D0      		rcall .
 188 00c6 CDB7      		in r28,__SP_L__
 189 00c8 DEB7      		in r29,__SP_H__
 190               	/* prologue: function */
 191               	/* frame size = 4 */
 192               	.LM12:
 193 00ca 8FEF      		ldi r24,lo8(-1)
 194 00cc 87BB      		out 55-32,r24
 195               	.LM13:
 196 00ce 18BA      		out 56-32,__zero_reg__
 197               	.LM14:
 198 00d0 8BE6      		ldi r24,lo8(107)
 199 00d2 83BF      		out 83-32,r24
 200               	.LM15:
 201 00d4 87E1      		ldi r24,lo8(23)
 202 00d6 8CBF      		out 92-32,r24
 203               	.LM16:
 204 00d8 47E1      		ldi r20,lo8(23)
 205               	.LBB66:
 206               	.LBB67:
 207               	.LBB68:
 208               	.LBB69:
 209               	.LBB70:
 210               	.LBB71:
 211               	.LM17:
 212 00da 2AEF      		ldi r18,lo8(250)
 213 00dc 30E0      		ldi r19,hi8(250)
 214               	.LBE71:
 215               	.LBE70:
 216               	.LBE69:
 217               	.LBE68:
 218               	.LBE67:
 219               	.LBE66:
 220               	.LM18:
 221 00de 6FE0      		ldi r22,lo8(15)
 222               	.LM19:
 223 00e0 5FE1      		ldi r21,lo8(31)
 224               	.LVL12:
 225               	.L18:
 226               	.LM20:
 227 00e2 4CBF      		out 92-32,r20
 228               	.LBB77:
 229               	.LBB76:
 230               	.LM21:
 231 00e4 1982      		std Y+1,__zero_reg__
 232 00e6 1A82      		std Y+2,__zero_reg__
 233 00e8 1B82      		std Y+3,__zero_reg__
 234 00ea 1C82      		std Y+4,__zero_reg__
 235               	.LVL13:
 236 00ec 00C0      		rjmp .L10
 237               	.L11:
 238               	.LBB75:
 239               	.LBB74:
 240               	.LBB73:
 241               	.LBB72:
 242               	.LM22:
 243 00ee C901      		movw r24,r18
 244               	.LVL14:
 245               	/* #APP */
 246               	 ;  105 "c:/winavr-20100110/lib/gcc/../../avr/include/util/delay_basic.h" 1
 247 00f0 0197      		1: sbiw r24,1
 248 00f2 01F4      		brne 1b
 249               	 ;  0 "" 2
 250               	/* #NOAPP */
 251               	.LBE72:
 252               	.LBE73:
 253               	.LBE74:
 254               	.LBE75:
 255               	.LM23:
 256 00f4 8981      		ldd r24,Y+1
 257 00f6 9A81      		ldd r25,Y+2
 258 00f8 AB81      		ldd r26,Y+3
 259 00fa BC81      		ldd r27,Y+4
 260               	.LVL15:
 261 00fc 0196      		adiw r24,1
 262 00fe A11D      		adc r26,__zero_reg__
 263 0100 B11D      		adc r27,__zero_reg__
 264 0102 8983      		std Y+1,r24
 265 0104 9A83      		std Y+2,r25
 266 0106 AB83      		std Y+3,r26
 267 0108 BC83      		std Y+4,r27
 268               	.LVL16:
 269               	.L10:
 270 010a 8981      		ldd r24,Y+1
 271 010c 9A81      		ldd r25,Y+2
 272 010e AB81      		ldd r26,Y+3
 273 0110 BC81      		ldd r27,Y+4
 274 0112 885B      		subi r24,lo8(3000)
 275 0114 9B40      		sbci r25,hi8(3000)
 276 0116 A040      		sbci r26,hlo8(3000)
 277 0118 B040      		sbci r27,hhi8(3000)
 278 011a 00F0      		brlo .L11
 279               	.LBE76:
 280               	.LBE77:
 281               	.LM24:
 282 011c 6CBF      		out 92-32,r22
 283               	.LBB78:
 284               	.LBB79:
 285               	.LM25:
 286 011e 1982      		std Y+1,__zero_reg__
 287 0120 1A82      		std Y+2,__zero_reg__
 288 0122 1B82      		std Y+3,__zero_reg__
 289 0124 1C82      		std Y+4,__zero_reg__
 290               	.LVL17:
 291 0126 00C0      		rjmp .L12
 292               	.L13:
 293               	.LBB80:
 294               	.LBB81:
 295               	.LBB82:
 296               	.LBB83:
 297               	.LM26:
 298 0128 C901      		movw r24,r18
 299               	.LVL18:
 300               	/* #APP */
 301               	 ;  105 "c:/winavr-20100110/lib/gcc/../../avr/include/util/delay_basic.h" 1
 302 012a 0197      		1: sbiw r24,1
 303 012c 01F4      		brne 1b
 304               	 ;  0 "" 2
 305               	/* #NOAPP */
 306               	.LBE83:
 307               	.LBE82:
 308               	.LBE81:
 309               	.LBE80:
 310               	.LM27:
 311 012e 8981      		ldd r24,Y+1
 312 0130 9A81      		ldd r25,Y+2
 313 0132 AB81      		ldd r26,Y+3
 314 0134 BC81      		ldd r27,Y+4
 315               	.LVL19:
 316 0136 0196      		adiw r24,1
 317 0138 A11D      		adc r26,__zero_reg__
 318 013a B11D      		adc r27,__zero_reg__
 319 013c 8983      		std Y+1,r24
 320 013e 9A83      		std Y+2,r25
 321 0140 AB83      		std Y+3,r26
 322 0142 BC83      		std Y+4,r27
 323               	.LVL20:
 324               	.L12:
 325 0144 8981      		ldd r24,Y+1
 326 0146 9A81      		ldd r25,Y+2
 327 0148 AB81      		ldd r26,Y+3
 328 014a BC81      		ldd r27,Y+4
 329 014c 885B      		subi r24,lo8(3000)
 330 014e 9B40      		sbci r25,hi8(3000)
 331 0150 A040      		sbci r26,hlo8(3000)
 332 0152 B040      		sbci r27,hhi8(3000)
 333 0154 00F0      		brlo .L13
 334               	.LBE79:
 335               	.LBE78:
 336               	.LM28:
 337 0156 4CBF      		out 92-32,r20
 338               	.LBB84:
 339               	.LBB85:
 340               	.LM29:
 341 0158 1982      		std Y+1,__zero_reg__
 342 015a 1A82      		std Y+2,__zero_reg__
 343 015c 1B82      		std Y+3,__zero_reg__
 344 015e 1C82      		std Y+4,__zero_reg__
 345               	.LVL21:
 346 0160 00C0      		rjmp .L14
 347               	.L15:
 348               	.LBB86:
 349               	.LBB87:
 350               	.LBB88:
 351               	.LBB89:
 352               	.LM30:
 353 0162 C901      		movw r24,r18
 354               	.LVL22:
 355               	/* #APP */
 356               	 ;  105 "c:/winavr-20100110/lib/gcc/../../avr/include/util/delay_basic.h" 1
 357 0164 0197      		1: sbiw r24,1
 358 0166 01F4      		brne 1b
 359               	 ;  0 "" 2
 360               	/* #NOAPP */
 361               	.LBE89:
 362               	.LBE88:
 363               	.LBE87:
 364               	.LBE86:
 365               	.LM31:
 366 0168 8981      		ldd r24,Y+1
 367 016a 9A81      		ldd r25,Y+2
 368 016c AB81      		ldd r26,Y+3
 369 016e BC81      		ldd r27,Y+4
 370               	.LVL23:
 371 0170 0196      		adiw r24,1
 372 0172 A11D      		adc r26,__zero_reg__
 373 0174 B11D      		adc r27,__zero_reg__
 374 0176 8983      		std Y+1,r24
 375 0178 9A83      		std Y+2,r25
 376 017a AB83      		std Y+3,r26
 377 017c BC83      		std Y+4,r27
 378               	.LVL24:
 379               	.L14:
 380 017e 8981      		ldd r24,Y+1
 381 0180 9A81      		ldd r25,Y+2
 382 0182 AB81      		ldd r26,Y+3
 383 0184 BC81      		ldd r27,Y+4
 384 0186 885B      		subi r24,lo8(3000)
 385 0188 9B40      		sbci r25,hi8(3000)
 386 018a A040      		sbci r26,hlo8(3000)
 387 018c B040      		sbci r27,hhi8(3000)
 388 018e 00F0      		brlo .L15
 389               	.LBE85:
 390               	.LBE84:
 391               	.LM32:
 392 0190 5CBF      		out 92-32,r21
 393               	.LBB90:
 394               	.LBB91:
 395               	.LM33:
 396 0192 1982      		std Y+1,__zero_reg__
 397 0194 1A82      		std Y+2,__zero_reg__
 398 0196 1B82      		std Y+3,__zero_reg__
 399 0198 1C82      		std Y+4,__zero_reg__
 400               	.LVL25:
 401 019a 00C0      		rjmp .L16
 402               	.L20:
 403               	.LBB92:
 404               	.LBB93:
 405               	.LBB94:
 406               	.LBB95:
 407               	.LM34:
 408 019c C901      		movw r24,r18
 409               	.LVL26:
 410               	/* #APP */
 411               	 ;  105 "c:/winavr-20100110/lib/gcc/../../avr/include/util/delay_basic.h" 1
 412 019e 0197      		1: sbiw r24,1
 413 01a0 01F4      		brne 1b
 414               	 ;  0 "" 2
 415               	/* #NOAPP */
 416               	.LBE95:
 417               	.LBE94:
 418               	.LBE93:
 419               	.LBE92:
 420               	.LM35:
 421 01a2 8981      		ldd r24,Y+1
 422 01a4 9A81      		ldd r25,Y+2
 423 01a6 AB81      		ldd r26,Y+3
 424 01a8 BC81      		ldd r27,Y+4
 425               	.LVL27:
 426 01aa 0196      		adiw r24,1
 427 01ac A11D      		adc r26,__zero_reg__
 428 01ae B11D      		adc r27,__zero_reg__
 429 01b0 8983      		std Y+1,r24
 430 01b2 9A83      		std Y+2,r25
 431 01b4 AB83      		std Y+3,r26
 432 01b6 BC83      		std Y+4,r27
 433               	.LVL28:
 434               	.L16:
 435 01b8 8981      		ldd r24,Y+1
 436 01ba 9A81      		ldd r25,Y+2
 437 01bc AB81      		ldd r26,Y+3
 438 01be BC81      		ldd r27,Y+4
 439 01c0 885B      		subi r24,lo8(3000)
 440 01c2 9B40      		sbci r25,hi8(3000)
 441 01c4 A040      		sbci r26,hlo8(3000)
 442 01c6 B040      		sbci r27,hhi8(3000)
 443 01c8 00F0      		brlo .+2
 444 01ca 00C0      		rjmp .L18
 445 01cc 00C0      		rjmp .L20
 446               	.LBE91:
 447               	.LBE90:
 448               	.LFE8:
 490               	.Letext0:
DEFINED SYMBOLS
                            *ABS*:00000000 serwo.c
C:\Users\STUDEN~1\AppData\Local\Temp/ccgQZmOj.s:2      *ABS*:0000003f __SREG__
C:\Users\STUDEN~1\AppData\Local\Temp/ccgQZmOj.s:3      *ABS*:0000003e __SP_H__
C:\Users\STUDEN~1\AppData\Local\Temp/ccgQZmOj.s:4      *ABS*:0000003d __SP_L__
C:\Users\STUDEN~1\AppData\Local\Temp/ccgQZmOj.s:5      *ABS*:00000034 __CCP__
C:\Users\STUDEN~1\AppData\Local\Temp/ccgQZmOj.s:6      *ABS*:00000000 __tmp_reg__
C:\Users\STUDEN~1\AppData\Local\Temp/ccgQZmOj.s:7      *ABS*:00000001 __zero_reg__
C:\Users\STUDEN~1\AppData\Local\Temp/ccgQZmOj.s:18     .text:00000000 delay_ms
C:\Users\STUDEN~1\AppData\Local\Temp/ccgQZmOj.s:100    .text:00000060 delay_us
C:\Users\STUDEN~1\AppData\Local\Temp/ccgQZmOj.s:181    .text:000000be main

NO UNDEFINED SYMBOLS
